{
    "type": "object",
    "properties": {
        "acno" : {
            "type" : "string"
        },
        "name" : {
            "type" : "string"
        }
    },
    "required": ["acno","name"]
}