{
    "type": "array",
    "minItems": 1,
    "items" : 
    {
        "type" : "object",
        "properties": {
            "acno": {
                "type" : "string"
            },
            "order_id": {
                "type" : "number"
            }
        },
        "required": ["acno","order_id"]
    }
}