{
    "type": "object",
    "properties": {
        "acno": {
            "type" : "string"
        },
        "rider_id": {
            "type" : "number"
        }
    },
    "required": ["acno","rider_id"]
}