{
    "type": "object",
    "properties": {
        "id": {
            "type" : "number"
        },
        "rider_name": {
            "type" : "string"
        },
        "rider_phone": {
            "type" : "string"
        },
        "password": {
            "type" : "string"
        },
        "city_id": {
            "type" : "number"
        },
        "status" :{
            "type" :"string",
            "enum" : ["active","inactive"]
        }
    },
    "required": ["id","rider_name","rider_phone","password","city_id","status"]
}