{
    "type" : "object",
    "properties": {
        "order_id" :{
            "type" : "number"
        },
        "acno": {
            "type" : "string"
        }
    },
    "required": ["order_id","acno"]
}